{
  "profiles": {
    "UserRoles.Services": {
      "commandName": "Project",
      "launchBrowser": true,
      "environmentVariables": {
        "ASPNETCORE_ENVIRONMENT": "Development"
      },
      "applicationUrl": "https://localhost:6837;http://localhost:6839"
    }
  }
}